^D:\UNITY\ÖRNEK\ROLL A BALL\ROLL A BALL\BUILD\OBJ\X64\DEBUG\WINDOWSPLAYER\MAIN.OBJ|D:\UNITY\ÖRNEK\ROLL A BALL\ROLL A BALL\BUILD\OBJ\X64\DEBUG\WINDOWSPLAYER\PRECOMPILEDHEADER.OBJ|D:\UNITY\ÖRNEK\ROLL A BALL\ROLL A BALL\BUILD\OBJ\X64\DEBUG\WINDOWSPLAYER\WINDOWSPLAYER.RES
D:\UNITY\ÖRNEK\ROLL A BALL\ROLL A BALL\BUILD\OBJ\X64\DEBUG\WINDOWSPLAYER\ROLL-A-BALL.ILK
D:\UNITY\ÖRNEK\ROLL A BALL\ROLL A BALL\BUILD\BIN\X64\DEBUG\ROLL-A-BALL.EXE
D:\UNITY\ÖRNEK\ROLL A BALL\ROLL A BALL\BUILD\BIN\X64\DEBUG\ROLL-A-BALL_X64_DEBUG_MONO.PDB
