^D:\Unity\Örnek\Roll a ball\Roll a Ball\Roll a Ball\Roll a Ball.vcxproj
D:\Unity\Örnek\Roll a ball\Roll a Ball\build\bin\x64\Debug\Roll-a-Ball.lib
D:\Unity\Örnek\Roll a ball\Roll a Ball\build\bin\x64\Debug\Roll-a-Ball.exp
